{"playlists": {"href": "https://api.spotify.com/v1/search?query=portugal&type=playlist&market=PT&offset=0&limit=5", "items": [{"collaborative": false, "description": "Your daily update of the most played tracks right now - Portugal.", "external_urls": {"spotify": "https://open.spotify.com/playlist/37i9dQZEVXbKyJS56d1pgi"}, "href": "https://api.spotify.com/v1/playlists/37i9dQZEVXbKyJS56d1pgi", "id": "37i9dQZEVXbKyJS56d1pgi", "images": [{"height": null, "url": "https://charts-images.scdn.co/assets/locale_en/regional/daily/region_pt_large.jpg", "width": null}], "name": "Top 50 - Portugal", "owner": {"display_name": "Spotify", "external_urls": {"spotify": "https://open.spotify.com/user/spotify"}, "href": "https://api.spotify.com/v1/users/spotify", "id": "spotify", "type": "user", "uri": "spotify:user:spotify"}, "primary_color": null, "public": null, "snapshot_id": "NzI3MzU1NTEwLDAwMDAwMDAwMDAwMDAwMDAwMDAwMDAwMDAwMDAwMDAwMDAwMDY1NmU=", "tracks": {"href": "https://api.spotify.com/v1/playlists/37i9dQZEVXbKyJS56d1pgi/tracks", "total": 50}, "type": "playlist", "uri": "spotify:playlist:37i9dQZEVXbKyJS56d1pgi"}, {"collaborative": false, "description": "Os grandes hits reunidos numa playlist \u00fanica! Foto: Bizarrap e Shakira", "external_urls": {"spotify": "https://open.spotify.com/playlist/37i9dQZF1DX0rV7skaITBo"}, "href": "https://api.spotify.com/v1/playlists/37i9dQZF1DX0rV7skaITBo", "id": "37i9dQZF1DX0rV7skaITBo", "images": [{"height": null, "url": "https://i.scdn.co/image/ab67706f00000003a35e1f9d965d579dd6fbb3d7", "width": null}], "name": "Hot Hits Portugal", "owner": {"display_name": "Spotify", "external_urls": {"spotify": "https://open.spotify.com/user/spotify"}, "href": "https://api.spotify.com/v1/users/spotify", "id": "spotify", "type": "user", "uri": "spotify:user:spotify"}, "primary_color": null, "public": null, "snapshot_id": "MTY3Mzg2NzcyMywwMDAwMDAwMDBhZmY3M2FlYTUwYWQ0ODY5ODM1NzNhZTUwNWEwNWNk", "tracks": {"href": "https://api.spotify.com/v1/playlists/37i9dQZF1DX0rV7skaITBo/tracks", "total": 50}, "type": "playlist", "uri": "spotify:playlist:37i9dQZF1DX0rV7skaITBo"}, {"collaborative": false, "description": "O melhor da primeira d\u00e9cada do mil\u00e9nio", "external_urls": {"spotify": "https://open.spotify.com/playlist/37i9dQZF1DX17E3cXq3hn3"}, "href": "https://api.spotify.com/v1/playlists/37i9dQZF1DX17E3cXq3hn3", "id": "37i9dQZF1DX17E3cXq3hn3", "images": [{"height": null, "url": "https://i.scdn.co/image/ab67706f00000003de02f7dfaf562b4debb3c555", "width": null}], "name": "Portugal Anos 2000", "owner": {"display_name": "Spotify", "external_urls": {"spotify": "https://open.spotify.com/user/spotify"}, "href": "https://api.spotify.com/v1/users/spotify", "id": "spotify", "type": "user", "uri": "spotify:user:spotify"}, "primary_color": null, "public": null, "snapshot_id": "MTY2MjQ3MzkxOSwwMDAwMDAwMDA0NTczYTFkYzk0NjQ2MWM1MzNlM2U0ZGMzZWIzMDg2", "tracks": {"href": "https://api.spotify.com/v1/playlists/37i9dQZF1DX17E3cXq3hn3/tracks", "total": 100}, "type": "playlist", "uri": "spotify:playlist:37i9dQZF1DX17E3cXq3hn3"}, {"collaborative": false, "description": "", "external_urls": {"spotify": "https://open.spotify.com/playlist/23C2kBHMe633r5cP7UAVtq"}, "href": "https://api.spotify.com/v1/playlists/23C2kBHMe633r5cP7UAVtq", "id": "23C2kBHMe633r5cP7UAVtq", "images": [{"height": 640, "url": "https://mosaic.scdn.co/640/ab67616d0000b2731ca3b46221cc5609eea16065ab67616d0000b273490fa621dbb4cdeae3a7368aab67616d0000b2734cf31ad0e08137dcb5e8022aab67616d0000b27361a7efc1376d13bd963375cf", "width": 640}, {"height": 300, "url": "https://mosaic.scdn.co/300/ab67616d0000b2731ca3b46221cc5609eea16065ab67616d0000b273490fa621dbb4cdeae3a7368aab67616d0000b2734cf31ad0e08137dcb5e8022aab67616d0000b27361a7efc1376d13bd963375cf", "width": 300}, {"height": 60, "url": "https://mosaic.scdn.co/60/ab67616d0000b2731ca3b46221cc5609eea16065ab67616d0000b273490fa621dbb4cdeae3a7368aab67616d0000b2734cf31ad0e08137dcb5e8022aab67616d0000b27361a7efc1376d13bd963375cf", "width": 60}], "name": "Portugal", "owner": {"display_name": "Maria Ricardo", "external_urls": {"spotify": "https://open.spotify.com/user/215rwh3i2ucgxbffx56de43zq"}, "href": "https://api.spotify.com/v1/users/215rwh3i2ucgxbffx56de43zq", "id": "215rwh3i2ucgxbffx56de43zq", "type": "user", "uri": "spotify:user:215rwh3i2ucgxbffx56de43zq"}, "primary_color": null, "public": null, "snapshot_id": "NDIsNmRmZWI0YWNmOTQyZjdkZmMxNjkyNzY5NDU1MzFjYTE3NWU3YjJhMQ==", "tracks": {"href": "https://api.spotify.com/v1/playlists/23C2kBHMe633r5cP7UAVtq/tracks", "total": 37}, "type": "playlist", "uri": "spotify:playlist:23C2kBHMe633r5cP7UAVtq"}, {"collaborative": false, "description": "", "external_urls": {"spotify": "https://open.spotify.com/playlist/1Y5gBIPhlHvoQVS5XgTGXD"}, "href": "https://api.spotify.com/v1/playlists/1Y5gBIPhlHvoQVS5XgTGXD", "id": "1Y5gBIPhlHvoQVS5XgTGXD", "images": [{"height": 640, "url": "https://mosaic.scdn.co/640/ab67616d0000b2735fd4b0969951ae9d603b4e2eab67616d0000b2736faf7f68e80186f63530a5d7ab67616d0000b2739421b696928fc4c63ec5f35eab67616d0000b273af430804cc1c0df4492b97b1", "width": 640}, {"height": 300, "url": "https://mosaic.scdn.co/300/ab67616d0000b2735fd4b0969951ae9d603b4e2eab67616d0000b2736faf7f68e80186f63530a5d7ab67616d0000b2739421b696928fc4c63ec5f35eab67616d0000b273af430804cc1c0df4492b97b1", "width": 300}, {"height": 60, "url": "https://mosaic.scdn.co/60/ab67616d0000b2735fd4b0969951ae9d603b4e2eab67616d0000b2736faf7f68e80186f63530a5d7ab67616d0000b2739421b696928fc4c63ec5f35eab67616d0000b273af430804cc1c0df4492b97b1", "width": 60}], "name": "Portugal Best of 2023\ud83c\uddf5\ud83c\uddf9", "owner": {"display_name": "Dario Abreu", "external_urls": {"spotify": "https://open.spotify.com/user/1171733041"}, "href": "https://api.spotify.com/v1/users/1171733041", "id": "1171733041", "type": "user", "uri": "spotify:user:1171733041"}, "primary_color": null, "public": null, "snapshot_id": "MTExLGYxMmQzMzBjZjk4ZGI0YjhkZTI3ZWZiZTQ5MzZjNDExOWRkOTFiODk=", "tracks": {"href": "https://api.spotify.com/v1/playlists/1Y5gBIPhlHvoQVS5XgTGXD/tracks", "total": 103}, "type": "playlist", "uri": "spotify:playlist:1Y5gBIPhlHvoQVS5XgTGXD"}], "limit": 5, "next": "https://api.spotify.com/v1/search?query=portugal&type=playlist&market=PT&offset=5&limit=5", "offset": 0, "previous": null, "total": 10026}}{"playlists": {"href": "https://api.spotify.com/v1/search?query=spain&type=playlist&market=ES&offset=0&limit=5", "items": [{"collaborative": false, "description": "Your daily update of the most played tracks right now - Spain.", "external_urls": {"spotify": "https://open.spotify.com/playlist/37i9dQZEVXbNFJfN1Vw8d9"}, "href": "https://api.spotify.com/v1/playlists/37i9dQZEVXbNFJfN1Vw8d9", "id": "37i9dQZEVXbNFJfN1Vw8d9", "images": [{"height": null, "url": "https://charts-images.scdn.co/assets/locale_en/regional/daily/region_es_large.jpg", "width": null}], "name": "Top 50 - Spain", "owner": {"display_name": "Spotify", "external_urls": {"spotify": "https://open.spotify.com/user/spotify"}, "href": "https://api.spotify.com/v1/users/spotify", "id": "spotify", "type": "user", "uri": "spotify:user:spotify"}, "primary_color": null, "public": null, "snapshot_id": "NzI3MzU1NTEwLDAwMDAwMDAwMDAwMDAwMDAwMDAwMDAwMDAwMDAwMDAwMDAwMDY1NmU=", "tracks": {"href": "https://api.spotify.com/v1/playlists/37i9dQZEVXbNFJfN1Vw8d9/tracks", "total": 50}, "type": "playlist", "uri": "spotify:playlist:37i9dQZEVXbNFJfN1Vw8d9"}, {"collaborative": false, "description": "Rock y rumba para esos d\u00edas de sol, sangr\u00eda y amigxs.", "external_urls": {"spotify": "https://open.spotify.com/playlist/37i9dQZF1DX73CRmw4CiSI"}, "href": "https://api.spotify.com/v1/playlists/37i9dQZF1DX73CRmw4CiSI", "id": "37i9dQZF1DX73CRmw4CiSI", "images": [{"height": null, "url": "https://i.scdn.co/image/ab67706f000000037b89fdbb993eeedbe0a7f133", "width": null}], "name": "Veranito a la Espa\u00f1ola", "owner": {"display_name": "Spotify", "external_urls": {"spotify": "https://open.spotify.com/user/spotify"}, "href": "https://api.spotify.com/v1/users/spotify", "id": "spotify", "type": "user", "uri": "spotify:user:spotify"}, "primary_color": null, "public": null, "snapshot_id": "MTY0MzE1MDgyMiwwMDAwMDAwMDliZjliMmNiNzVhNmE5NjY0NjAzNWJmM2Q1ZWUzOTA4", "tracks": {"href": "https://api.spotify.com/v1/playlists/37i9dQZF1DX73CRmw4CiSI/tracks", "total": 90}, "type": "playlist", "uri": "spotify:playlist:37i9dQZF1DX73CRmw4CiSI"}, {"collaborative": false, "description": "Your daily update of the most viral tracks right now - Spain.", "external_urls": {"spotify": "https://open.spotify.com/playlist/37i9dQZEVXbMfVLvbaC3bj"}, "href": "https://api.spotify.com/v1/playlists/37i9dQZEVXbMfVLvbaC3bj", "id": "37i9dQZEVXbMfVLvbaC3bj", "images": [{"height": null, "url": "https://charts-images.scdn.co/assets/locale_en/viral/daily/region_es_large.jpg", "width": null}], "name": "Viral 50 - Spain", "owner": {"display_name": "Spotify", "external_urls": {"spotify": "https://open.spotify.com/user/spotify"}, "href": "https://api.spotify.com/v1/users/spotify", "id": "spotify", "type": "user", "uri": "spotify:user:spotify"}, "primary_color": null, "public": null, "snapshot_id": "NzI3MzYxNDI3LDAwMDAwMDAwMDAwMDAwMDAwMDAwMDAwMDAwMDAwMDAwMDAwMDY1NmU=", "tracks": {"href": "https://api.spotify.com/v1/playlists/37i9dQZEVXbMfVLvbaC3bj/tracks", "total": 50}, "type": "playlist", "uri": "spotify:playlist:37i9dQZEVXbMfVLvbaC3bj"}, {"collaborative": false, "description": "Your weekly update of the most played tracks right now - Spain.", "external_urls": {"spotify": "https://open.spotify.com/playlist/37i9dQZEVXbJwoKy8qKpHG"}, "href": "https://api.spotify.com/v1/playlists/37i9dQZEVXbJwoKy8qKpHG", "id": "37i9dQZEVXbJwoKy8qKpHG", "images": [{"height": null, "url": "https://charts-images.scdn.co/assets/locale_en/regional/weekly/region_es_large.jpg", "width": null}], "name": "Top Songs - Spain", "owner": {"display_name": "Spotify", "external_urls": {"spotify": "https://open.spotify.com/user/spotify"}, "href": "https://api.spotify.com/v1/users/spotify", "id": "spotify", "type": "user", "uri": "spotify:user:spotify"}, "primary_color": null, "public": null, "snapshot_id": "NzI2OTQwOTA4LDAwMDAwMDAwMDAwMDAwMDAwMDAwMDAwMDAwMDAwMDAwMDAwMDY1NmU=", "tracks": {"href": "https://api.spotify.com/v1/playlists/37i9dQZEVXbJwoKy8qKpHG/tracks", "total": 50}, "type": "playlist", "uri": "spotify:playlist:37i9dQZEVXbJwoKy8qKpHG"}, {"collaborative": false, "description": "", "external_urls": {"spotify": "https://open.spotify.com/playlist/4YWzZ8BVCpJ1MVo8D3K6D3"}, "href": "https://api.spotify.com/v1/playlists/4YWzZ8BVCpJ1MVo8D3K6D3", "id": "4YWzZ8BVCpJ1MVo8D3K6D3", "images": [{"height": null, "url": "https://i.scdn.co/image/ab67706c0000bebb61878dd6786cd6b9684cde87", "width": null}], "name": "TOP ESPA\u00d1A 2023", "owner": {"display_name": "Don Playlist", "external_urls": {"spotify": "https://open.spotify.com/user/315n6qxrjbamvj3n5dbatnwpdyp4"}, "href": "https://api.spotify.com/v1/users/315n6qxrjbamvj3n5dbatnwpdyp4", "id": "315n6qxrjbamvj3n5dbatnwpdyp4", "type": "user", "uri": "spotify:user:315n6qxrjbamvj3n5dbatnwpdyp4"}, "primary_color": null, "public": null, "snapshot_id": "MjUzLGZjMmExYTQ3MGRhZmIyMmVmMzhkZTBlZjM2MWM2OWZlZTFiMWJmNDk=", "tracks": {"href": "https://api.spotify.com/v1/playlists/4YWzZ8BVCpJ1MVo8D3K6D3/tracks", "total": 166}, "type": "playlist", "uri": "spotify:playlist:4YWzZ8BVCpJ1MVo8D3K6D3"}], "limit": 5, "next": "https://api.spotify.com/v1/search?query=spain&type=playlist&market=ES&offset=5&limit=5", "offset": 0, "previous": null, "total": 10023}}